COD G96
COM Catalina Sky Survey
COM E. J. Christensen
OBS R. L. Seaman
MEA E. J. Christensen, D. C. Fuls, A. R. Gibbs, A. D. Grauer, J. A. Johnson
MEA R. A. Kowalski, S. M. Larson, G. J. Leonard, R. G. Matheny, R. L. Seaman
MEA F. C. Shelly
TEL 1.5-m reflector + CCD
COM IRAF
COM MPC
COM MPC
COM US
COM hot
NET UCAC4
AC2 submitter@example.com
ACK example message
COM NEO
     XJF32B7  C2013 10 04.33709001 11 00.418+20 13 08.18         17.9 V      G96
     XJF32B7  C2013 10 04.34409201 11 00.067+20 13 05.77         18.0 V      G96
     XJF32B7  C2013 10 04.35109801 10 59.712+20 13 03.43         18.0 V      G96
     XJF32B7  C2013 10 04.35813501 10 59.364+20 13 00.95         18.1 V      G96
     XJF32B6  C2013 10 04.33709001 13 06.857+19 47 29.65         19.0 V      G96
     XJF32B6  C2013 10 04.34409201 13 06.454+19 47 29.76         19.1 V      G96
     XJF32B6  C2013 10 04.35109801 13 06.055+19 47 29.80         19.1 V      G96
     XJF32B6  C2013 10 04.35813501 13 05.650+19 47 29.94         19.0 V      G96
     XJF32B9  C2013 10 04.33709001 11 27.216+19 36 04.03         19.2 V      G96
     XJF32B9  C2013 10 04.34409201 11 26.784+19 36 04.18         19.2 V      G96
     XJF32B9  C2013 10 04.35109801 11 26.342+19 36 04.39         19.2 V      G96
     XJF32B9  C2013 10 04.35813501 11 25.915+19 36 04.61         19.2 V      G96
     XJF32BA  C2013 10 04.33709001 09 45.962+20 19 34.61         19.3 V      G96
     XJF32BA  C2013 10 04.34409201 09 45.554+20 19 32.23         19.3 V      G96
     XJF32BA  C2013 10 04.35109801 09 45.146+20 19 29.82         19.2 V      G96
     XJF32BA  C2013 10 04.35813501 09 44.734+20 19 27.37         19.3 V      G96
     XJF32C7  C2013 10 04.33709001 13 16.226+20 18 53.39         19.4 V      G96
     XJF32C7  C2013 10 04.34409201 13 15.888+20 18 51.80         19.2 V      G96
     XJF32C7  C2013 10 04.35109801 13 15.547+20 18 50.44         19.3 V      G96
     XJF32C7  C2013 10 04.35813501 13 15.204+20 18 48.82         19.3 V      G96
     XSE13F2  C2013 10 04.33709001 11 27.950+20 17 30.41         19.8 V      G96
     XSE13F2  C2013 10 04.34409201 11 27.576+20 17 29.76         19.7 V      G96
     XSE13F2  C2013 10 04.35109801 11 27.202+20 17 29.04         19.7 V      G96
     XSE13F2  C2013 10 04.35813501 11 26.818+20 17 28.36         19.7 V      G96
     XSE13F3  C2013 10 04.33709001 11 48.785+20 13 03.04         19.6 V      G96
     XSE13F3  C2013 10 04.34409201 11 48.384+20 13 02.06         19.6 V      G96
     XSE13F3  C2013 10 04.35109801 11 47.986+20 13 01.16         19.6 V      G96
     XSE13F3  C2013 10 04.35813501 11 47.587+20 13 00.30         19.6 V      G96
     XSE13F5  C2013 10 04.33709001 13 12.614+20 21 03.28         19.6 V      G96
     XSE13F5  C2013 10 04.34409201 13 12.144+20 21 04.82         19.7 V      G96
     XSE13F5  C2013 10 04.35109801 13 11.666+20 21 06.41         19.7 V      G96
     XSE13F5  C2013 10 04.35813501 13 11.194+20 21 07.99         19.7 V      G96
     XSE13F6  C2013 10 04.33709001 11 06.814+19 38 22.81         19.9 V      G96
     XSE13F6  C2013 10 04.34409201 11 06.478+19 38 21.08         19.8 V      G96
     XSE13F6  C2013 10 04.35109801 11 06.101+19 38 19.14         19.9 V      G96
     XSE13F6  C2013 10 04.35813501 11 05.702+19 38 17.34         19.7 V      G96
     XSE13F7  C2013 10 04.33709001 08 53.299+20 23 17.70         19.9 V      G96
     XSE13F7  C2013 10 04.34409201 08 52.966+20 23 13.99         19.9 V      G96
     XSE13F7  C2013 10 04.35109801 08 52.589+20 23 10.21         20.0 V      G96
     XSE13F7  C2013 10 04.35813501 08 52.234+20 23 06.54         20.0 V      G96
     XSE13F8  C2013 10 04.33709001 10 43.363+19 44 34.15         20.0 V      G96
     XSE13F8  C2013 10 04.34409201 10 43.034+19 44 32.21         20.0 V      G96
     XSE13F8  C2013 10 04.35109801 10 42.718+19 44 30.23         20.1 V      G96
     XSE13F8  C2013 10 04.35813501 10 42.394+19 44 28.03         20.1 V      G96
     XSE13F9  C2013 10 04.33709001 13 01.454+19 43 53.72         20.3 V      G96
     XSE13F9  C2013 10 04.34409201 13 01.080+19 43 52.50         20.4 V      G96
     XSE13F9  C2013 10 04.35109801 13 00.754+19 43 51.56         20.4 V      G96
     XSE13F9  C2013 10 04.35813501 13 00.391+19 43 50.38         20.3 V      G96
     XSE13FA  C2013 10 04.33709001 10 05.246+19 29 33.76         20.3 V      G96
     XSE13FA  C2013 10 04.34409201 10 04.920+19 29 32.28         20.2 V      G96
     XSE13FA  C2013 10 04.35109801 10 04.555+19 29 30.91         20.5 V      G96
     XSE13FA  C2013 10 04.35813501 10 04.222+19 29 29.62         20.4 V      G96
     XJF32AC  C2013 10 04.33709001 10 30.226+19 35 46.43         21.0 V      G96
     XJF32AC  C2013 10 04.34409201 10 29.856+19 35 42.97         20.1 V      G96
     XJF32AC  C2013 10 04.35109801 10 29.659+19 35 41.21         20.2 V      G96
     XJF32AC  C2013 10 04.35813501 10 29.314+19 35 38.29         20.8 V      G96
     XJF32AD  C2013 10 04.33709001 11 17.237+20 34 23.74         21.1 V      G96
     XJF32AD  C2013 10 04.34409201 11 16.872+20 34 22.87         21.1 V      G96
     XJF32AD  C2013 10 04.35109801 11 16.512+20 34 22.01         21.1 V      G96
     XJF32AD  C2013 10 04.35813501 11 16.181+20 34 21.36                     G96
     XJF32AE* C2013 10 04.33709001 11 43.589+19 55 14.99                     G96
     XJF32AE  C2013 10 04.34409201 11 43.250+19 55 13.48                     G96
     XJF32AE  C2013 10 04.35109801 11 42.934+19 55 12.00         21.4 V      G96
     XJF32AE  C2013 10 04.35813501 11 42.607+19 55 09.95         21.4 V      G96
U321SK01U090  C2013 10 04.33709001 09 31.258+20 01 44.94         21.5 V      G96
U321SK01U090  C2013 10 04.34409201 09 30.859+20 01 44.26         20.9 V      G96
U321SK01U090  C2013 10 04.35109801 09 30.430+20 01 43.72         21.1 V      G96
U321SK01U090  C2013 10 04.35813501 09 29.986+20 01 42.85         21.1 V      G96
    SK01U090  C2013 10 04.33709001 09 31.258+20 01 44.94         21.5 V      G96
    SK01U090  C2013 10 04.34409201 09 30.859+20 01 44.26         20.9 V      G96
    SK01U090  C2013 10 04.35109801 09 30.430+20 01 43.72         21.1 V      G96
    SK01U090  C2013 10 04.35813501 09 29.986+20 01 42.85         21.1 V      G96
    PK10Q00R  C2013 10 04.33709001 11 10.666+20 07 17.18         21.8 V      G96
    PK10Q00R  C2013 10 04.34409201 11 10.356+20 07 14.16         21.4 V      G96
    PK10Q00R  C2013 10 04.35109801 11 10.010+20 07 11.50         20.7 V      G96
    PK10Q00R  C2013 10 04.35813501 11 09.694+20 07 08.58         21.3 V      G96
0321PK10Q00R  C2013 10 04.33709001 12 28.277+19 42 44.42         21.1 V      G96
0321PK10Q00R  C2013 10 04.34409201 12 27.974+19 42 43.16         21.2 V      G96
0321PK10Q00R  C2013 10 04.35109801 12 27.648+19 42 41.51         21.4 V      G96
0321PK10Q00R  C2013 10 04.35813501 12 27.290+19 42 40.32         21.4 V      G96
     F32B2    C2013 10 04.33709001 11 36.060+19 36 01.51         22.1 V      G96
     F32B2    C2013 10 04.34409201 11 35.714+19 36 00.58         21.8 V      G96
     F32B2    C2013 10 04.35109801 11 35.378+19 35 58.63         21.8 V      G96
     F32B2    C2013 10 04.35813501 11 35.088+19 35 56.72         21.5 V      G96
     xF32B49  C2013 10 04.33709001 10 49.946+19 47 53.27         21.8 V      G96
     xF32B49  C2013 10 04.34409201 10 49.562+19 47 53.16         21.8 V      G96
     xF32B49  C2013 10 04.35109801 10 49.162+19 47 52.55         21.6 V      G96
     xF32B49  C2013 10 04.35813501 10 48.727+19 47 52.44         21.9 V      G96
     x132B49  C2013 10 04.33709001 09 41.726+19 52 33.46         21.3 V      G96
     x132B49  C2013 10 04.34409201 09 41.386+19 52 31.69         21.9 V      G96
     x132B49  C2013 10 04.35109801 09 41.002+19 52 30.04         21.9 V      G96
     x132B49  C2013 10 04.35813501 09 40.613+19 52 28.34         22.3 V      G96
     XJF32B5  C2013 10 04.33709001 09 50.258+20 15 46.80         21.2 V      G96
     XJF32B5  C2013 10 04.34409201 09 49.872+20 15 44.17         21.4 V      G96
     XJF32B5  C2013 10 04.35109801 09 49.553+20 15 42.34         21.3 V      G96
     XJF32B5  C2013 10 04.35813501 09 49.176+20 15 40.18         21.5 V      G96
     K14X06K  S2014 11 03.63877 18 46 10.22 +59 47 09.0                      C51
     K14X06K  s2014 11 03.63877 1 + 1606.3130 - 2562.7112 + 6166.8438        C51
     K14X06K  S2014 11 03.63877 18 46 10.22 +59 47 09.0                      C51
     K14X06K  s2014 11 03.63877 2 +0.00001070 -0.00001700 +0.00004400        C51
